<?xml version="1.0" encoding="utf-8"?>
<!-- Generator: Adobe Illustrator 26.0.3, SVG Export Plug-In . SVG Version: 6.00 Build 0)  -->
<svg version="1.1" id="Calque_1" xmlns="http://www.w3.org/2000/svg" xmlns:xlink="http://www.w3.org/1999/xlink" x="0px" y="0px"
	 viewBox="0 0 42 42" enable-background="new 0 0 42 42" xml:space="preserve">
<path fill="#767486" d="M32.5,7h-23C8.1,7,7,8.1,7,9.5v23C7,33.9,8.1,35,9.5,35h23c1.4,0,2.5-1.1,2.5-2.5v-23C35,8.1,33.9,7,32.5,7z
	 M21,28.6c-0.8,0-1.2-0.6-1.2-1.2s0.6-1.2,1.2-1.2c0.8,0,1.2,0.6,1.2,1.2S21.7,28.6,21,28.6z M21.3,23.4c-0.2,0.2-0.3,0.2-0.5,0.2
	c-0.5,0-1.1-0.3-1.2-0.9c-0.2-0.6,0.2-1.4,0.9-1.7c0.8-0.3,2.9-1.2,2.9-2.6c0-1.1-0.6-2-1.7-2.4c-1.4-0.5-2.7,0.3-3.2,1.5
	c-0.3,0.8-1.1,1.1-1.7,0.9c-0.6-0.3-1.1-0.9-0.8-1.7c0.9-2.6,3.8-4,6.6-3c2,0.8,3.4,2.6,3.4,4.7C26,21.8,21.7,23.3,21.3,23.4z"/>
</svg>
